%YAML 1.1
%TAG !u! tag:unity3d.com,2011:
--- !u!1045 &1
EditorBuildSettings:
  m_ObjectHideFlags: 0
  serializedVersion: 2
  m_Scenes:
  - enabled: 0
    path: 
    guid: 00000000000000000000000000000000
  - enabled: 1
    path: Assets/_Scenes/Intro.unity
    guid: 65d6cad9b36297a4e9315a27176348b4
  - enabled: 1
    path: Assets/_Scenes/ClickToContinue.unity
    guid: b4927d9b7f46085408e674a6c95493ac
  - enabled: 1
    path: Assets/_Scenes/MainMenu.unity
    guid: 63805b6576981a9419bd8f73b92a33b7
  - enabled: 1
    path: Assets/_Scenes/Arsenal.unity
    guid: 04003cce048bd1742adbf2ae2a26d312
  - enabled: 1
    path: Assets/_Scenes/Main.unity
    guid: 26e9c020f143cc34e88edddf6ba7d18e
  m_configObjects: {}
